{
  "profiles": {
    "ToDoApp": {
      "commandName": "Project",
      "environmentVariables": {
        "ASPNETCORE_ENVIRONMENT": "Development"
      },
      "remoteDebugEnabled": false
    }
  }
}